{"hash":"7b73c1e515200e41506ff10d58b80ab190ece3c7","data":{"repos":{"totalCount":11,"pageInfo":{"totalPages":2,"currentPage":2},"edges":[{"node":{"id":"441373627","name":"trade-bot--tinkoff","full_name":"badlabs/trade-bot--tinkoff","owner":{"login":"badlabs","type":"Organization","html_url":"https://github.com/badlabs","avatar_url":"https://avatars.githubusercontent.com/u/102519299?v=4"},"description":"","html_url":"https://github.com/badlabs/trade-bot--tinkoff","stargazers_count":0,"language":{"name":"TypeScript","color":"#3178c6","icon":"https://cdn.jsdelivr.net/gh/devicons/devicon/icons/typescript/typescript-original.svg"},"releases":[{"name":"Refactor files structure","tag_name":"v0.3.2-alpha","html_url":"https://github.com/badlabs/trade-bot--tinkoff/releases/tag/v0.3.2-alpha"},{"name":"Fix SQLite access error","tag_name":"v0.3.1-alpha","html_url":"https://github.com/badlabs/trade-bot--tinkoff/releases/tag/v0.3.1-alpha"},{"name":"Change `security` => `instrument` in data model","tag_name":"v0.3.0-alpha","html_url":"https://github.com/badlabs/trade-bot--tinkoff/releases/tag/v0.3.0-alpha"},{"name":"Trade algorithms rework","tag_name":"v0.2.0-alpha","html_url":"https://github.com/badlabs/trade-bot--tinkoff/releases/tag/v0.2.0-alpha"},{"name":"v0.1.0-alpha","tag_name":"v0.1.0-alpha","html_url":"https://github.com/badlabs/trade-bot--tinkoff/releases/tag/v0.1.0-alpha"}]}},{"node":{"id":"491580687","name":"badlabs.github.io","full_name":"badlabs/badlabs.github.io","owner":{"login":"badlabs","type":"Organization","html_url":"https://github.com/badlabs","avatar_url":"https://avatars.githubusercontent.com/u/102519299?v=4"},"description":"Documentation for Badlabs products.","html_url":"https://github.com/badlabs/badlabs.github.io","stargazers_count":0,"language":{"name":"Vue","color":"#41b883","icon":"https://cdn.jsdelivr.net/gh/devicons/devicon/icons/vuejs/vuejs-original.svg"},"releases":[]}},{"node":{"id":"397483251","name":"th2-docs","full_name":"d0rich/th2-docs","owner":{"login":"d0rich","type":"User","html_url":"https://github.com/d0rich","avatar_url":"https://avatars.githubusercontent.com/u/51794590?v=4"},"description":"","html_url":"https://github.com/d0rich/th2-docs","stargazers_count":2,"language":{"name":"HTML","color":"#e34c26","icon":"https://cdn.jsdelivr.net/gh/devicons/devicon/icons/html5/html5-original.svg"},"releases":[]}},{"node":{"id":"385247025","name":"archipelago2121_pls","full_name":"Simraki/archipelago2121_pls","owner":{"login":"Simraki","type":"User","html_url":"https://github.com/Simraki","avatar_url":"https://avatars.githubusercontent.com/u/25868861?v=4"},"description":"","html_url":"https://github.com/Simraki/archipelago2121_pls","stargazers_count":0,"language":{"name":"Python","color":"#3572A5","icon":"https://cdn.jsdelivr.net/gh/devicons/devicon/icons/python/python-original.svg"},"releases":[]}},{"node":{"id":"314171285","name":"Word-API","full_name":"HoneySpace/Word-API","owner":{"login":"HoneySpace","type":"User","html_url":"https://github.com/HoneySpace","avatar_url":"https://avatars.githubusercontent.com/u/51043116?v=4"},"description":"","html_url":"https://github.com/HoneySpace/Word-API","stargazers_count":0,"language":{"name":"C#","color":"#178600","icon":"https://cdn.jsdelivr.net/gh/devicons/devicon/icons/csharp/csharp-original.svg"},"releases":[]}}]}},"context":{}}