{"hash":"cae65cf17d4f680647d1daf7e622753cc61430ab","data":{"repos":{"totalCount":14,"pageInfo":{"totalPages":3,"currentPage":3},"edges":[{"node":{"id":"385247025","name":"archipelago2121_pls","full_name":"Simraki/archipelago2121_pls","owner":{"login":"Simraki","type":"User","html_url":"https://github.com/Simraki","avatar_url":"https://avatars.githubusercontent.com/u/25868861?v=4"},"description":"","html_url":"https://github.com/Simraki/archipelago2121_pls","stargazers_count":0,"language":{"name":"Python","color":"#3572A5","icon":"https://cdn.jsdelivr.net/gh/devicons/devicon/icons/python/python-original.svg"},"releases":[]}},{"node":{"id":"314171285","name":"Word-API","full_name":"HoneySpace/Word-API","owner":{"login":"HoneySpace","type":"User","html_url":"https://github.com/HoneySpace","avatar_url":"https://avatars.githubusercontent.com/u/51043116?v=4"},"description":"","html_url":"https://github.com/HoneySpace/Word-API","stargazers_count":0,"language":{"name":"C#","color":"#178600","icon":"https://cdn.jsdelivr.net/gh/devicons/devicon/icons/csharp/csharp-original.svg"},"releases":[]}}]}},"context":{}}