{"hash":"6cce4f8f2a044ee8971d68ec9283ab5b011e9865","data":{"repos":{"totalCount":15,"pageInfo":{"totalPages":3,"currentPage":3},"edges":[{"node":{"id":"285872712","name":"math-training","full_name":"d0rich/math-training","owner":{"login":"d0rich","type":"User","html_url":"https://github.com/d0rich","avatar_url":"https://avatars.githubusercontent.com/u/51794590?v=4"},"description":"Приложение для отработки навыков счёта для детей 2-3 класс","html_url":"https://github.com/d0rich/math-training","stargazers_count":0,"language":{"name":"JavaScript","color":"#f1e05a","icon":"https://cdn.jsdelivr.net/gh/devicons/devicon/icons/javascript/javascript-original.svg"},"releases":[]}},{"node":{"id":"279090914","name":"sport-organizer-client","full_name":"d0rich/sport-organizer-client","owner":{"login":"d0rich","type":"User","html_url":"https://github.com/d0rich","avatar_url":"https://avatars.githubusercontent.com/u/51794590?v=4"},"description":"","html_url":"https://github.com/d0rich/sport-organizer-client","stargazers_count":0,"language":{"name":"Vue","color":"#41b883","icon":"https://cdn.jsdelivr.net/gh/devicons/devicon/icons/vuejs/vuejs-original.svg"},"releases":[]}},{"node":{"id":"265818303","name":"dorich-site-legacy","full_name":"d0rich/dorich-site-legacy","owner":{"login":"d0rich","type":"User","html_url":"https://github.com/d0rich","avatar_url":"https://avatars.githubusercontent.com/u/51794590?v=4"},"description":"","html_url":"https://github.com/d0rich/dorich-site-legacy","stargazers_count":0,"language":{"name":"Vue","color":"#41b883","icon":"https://cdn.jsdelivr.net/gh/devicons/devicon/icons/vuejs/vuejs-original.svg"},"releases":[]}}]}},"context":{}}