{"hash":"cae65cf17d4f680647d1daf7e622753cc61430ab","data":{"repos":{"totalCount":14,"pageInfo":{"totalPages":3,"currentPage":1},"edges":[{"node":{"id":"257043690","name":"d0rich.github.io","full_name":"d0rich/d0rich.github.io","owner":{"login":"d0rich","type":"User","html_url":"https://github.com/d0rich","avatar_url":"https://avatars.githubusercontent.com/u/51794590?v=4"},"description":"🌐 Just website about myself","html_url":"https://github.com/d0rich/d0rich.github.io","stargazers_count":1,"language":{"name":"Vue","color":"#41b883","icon":"https://cdn.jsdelivr.net/gh/devicons/devicon/icons/vuejs/vuejs-original.svg"},"releases":[]}},{"node":{"id":"579403592","name":"tradebot-cli","full_name":"badlabs/tradebot-cli","owner":{"login":"badlabs","type":"Organization","html_url":"https://github.com/badlabs","avatar_url":"https://avatars.githubusercontent.com/u/102519299?v=4"},"description":"CLI for simple interactions with tradebot","html_url":"https://github.com/badlabs/tradebot-cli","stargazers_count":0,"language":{"name":"TypeScript","color":"#3178c6","icon":"https://cdn.jsdelivr.net/gh/devicons/devicon/icons/typescript/typescript-original.svg"},"releases":[{"name":"v0.0.1","tag_name":"v0.0.1","html_url":"https://github.com/badlabs/tradebot-cli/releases/tag/v0.0.1"}]}},{"node":{"id":"454080323","name":"th2-docs","full_name":"th2-net/th2-docs","owner":{"login":"th2-net","type":"Organization","html_url":"https://github.com/th2-net","avatar_url":"https://avatars.githubusercontent.com/u/73948563?v=4"},"description":"","html_url":"https://github.com/th2-net/th2-docs","stargazers_count":4,"language":{"name":"Vue","color":"#41b883","icon":"https://cdn.jsdelivr.net/gh/devicons/devicon/icons/vuejs/vuejs-original.svg"},"releases":[{"name":"v1.0 Static Site Generated (Beta)","tag_name":"v1.0-beta","html_url":"https://github.com/th2-net/th2-docs/releases/tag/v1.0-beta"},{"name":"th2 docs (Nuxt) v0.0.1","tag_name":"v0.0.1","html_url":"https://github.com/th2-net/th2-docs/releases/tag/v0.0.1"}]}},{"node":{"id":"521584510","name":"th2-docs-schema","full_name":"d0rich/th2-docs-schema","owner":{"login":"d0rich","type":"User","html_url":"https://github.com/d0rich","avatar_url":"https://avatars.githubusercontent.com/u/51794590?v=4"},"description":"","html_url":"https://github.com/d0rich/th2-docs-schema","stargazers_count":0,"language":null,"releases":[]}},{"node":{"id":"576192861","name":"th2-docs","full_name":"d0rich/th2-docs","owner":{"login":"d0rich","type":"User","html_url":"https://github.com/d0rich","avatar_url":"https://avatars.githubusercontent.com/u/51794590?v=4"},"description":"","html_url":"https://github.com/d0rich/th2-docs","stargazers_count":0,"language":null,"releases":[]}},{"node":{"id":"525043168","name":"th2-dependencies","full_name":"d0rich/th2-dependencies","owner":{"login":"d0rich","type":"User","html_url":"https://github.com/d0rich","avatar_url":"https://avatars.githubusercontent.com/u/51794590?v=4"},"description":"🖇️ Script for analysis of th2-net organization and creating dependencies graph. ","html_url":"https://github.com/d0rich/th2-dependencies","stargazers_count":0,"language":{"name":"TypeScript","color":"#3178c6","icon":"https://cdn.jsdelivr.net/gh/devicons/devicon/icons/typescript/typescript-original.svg"},"releases":[]}}]}},"context":{}}