{"hash":"79d02572068799fe3aff66e01e4cb48c41126953","data":{"repos":{"totalCount":16,"pageInfo":{"totalPages":3,"currentPage":1},"edges":[{"node":{"id":"519851932","name":"geohelper-proxy","full_name":"d0rich/geohelper-proxy","owner":{"login":"d0rich","type":"User","html_url":"https://github.com/d0rich","avatar_url":"https://avatars.githubusercontent.com/u/51794590?v=4"},"description":"","html_url":"https://github.com/d0rich/geohelper-proxy","stargazers_count":0,"language":{"name":"JavaScript","color":"#f1e05a","icon":"https://cdn.jsdelivr.net/gh/devicons/devicon/icons/javascript/javascript-original.svg"},"releases":[]}},{"node":{"id":"518717537","name":"th2-configs-generator","full_name":"d0rich/th2-configs-generator","owner":{"login":"d0rich","type":"User","html_url":"https://github.com/d0rich","avatar_url":"https://avatars.githubusercontent.com/u/51794590?v=4"},"description":"API for generation config files for th2 installation.","html_url":"https://github.com/d0rich/th2-configs-generator","stargazers_count":1,"language":{"name":"TypeScript","color":"#3178c6","icon":"https://cdn.jsdelivr.net/gh/devicons/devicon/icons/typescript/typescript-original.svg"},"releases":[]}},{"node":{"id":"512229294","name":"sport-organizer-server","full_name":"d0rich/sport-organizer-server","owner":{"login":"d0rich","type":"User","html_url":"https://github.com/d0rich","avatar_url":"https://avatars.githubusercontent.com/u/51794590?v=4"},"description":"","html_url":"https://github.com/d0rich/sport-organizer-server","stargazers_count":0,"language":{"name":"JavaScript","color":"#f1e05a","icon":"https://cdn.jsdelivr.net/gh/devicons/devicon/icons/javascript/javascript-original.svg"},"releases":[]}},{"node":{"id":"511479242","name":"d0rich-site-v1-server","full_name":"d0rich/d0rich-site-v1-server","owner":{"login":"d0rich","type":"User","html_url":"https://github.com/d0rich","avatar_url":"https://avatars.githubusercontent.com/u/51794590?v=4"},"description":"My very first Node.js app","html_url":"https://github.com/d0rich/d0rich-site-v1-server","stargazers_count":0,"language":{"name":"JavaScript","color":"#f1e05a","icon":"https://cdn.jsdelivr.net/gh/devicons/devicon/icons/javascript/javascript-original.svg"},"releases":[]}},{"node":{"id":"440592787","name":"sushi-service","full_name":"d0rich/sushi-service","owner":{"login":"d0rich","type":"User","html_url":"https://github.com/d0rich","avatar_url":"https://avatars.githubusercontent.com/u/51794590?v=4"},"description":"","html_url":"https://github.com/d0rich/sushi-service","stargazers_count":0,"language":{"name":"Vue","color":"#41b883","icon":"https://cdn.jsdelivr.net/gh/devicons/devicon/icons/vuejs/vuejs-original.svg"},"releases":[]}},{"node":{"id":"403327692","name":"tpu_mobile_labs","full_name":"d0rich/tpu_mobile_labs","owner":{"login":"d0rich","type":"User","html_url":"https://github.com/d0rich","avatar_url":"https://avatars.githubusercontent.com/u/51794590?v=4"},"description":"Project for labs in TPU mobile apps course.","html_url":"https://github.com/d0rich/tpu_mobile_labs","stargazers_count":0,"language":{"name":"Dart","color":"#00B4AB","icon":"https://cdn.jsdelivr.net/gh/devicons/devicon/icons/dart/dart-original.svg"},"releases":[{"name":"v11.2.0","tag_name":"v11.2.0","html_url":"https://github.com/d0rich/tpu_mobile_labs/releases/tag/v11.2.0"},{"name":"v11.1.1","tag_name":"v11.1.1","html_url":"https://github.com/d0rich/tpu_mobile_labs/releases/tag/v11.1.1"},{"name":"v11.1.0","tag_name":"v11.1.0","html_url":"https://github.com/d0rich/tpu_mobile_labs/releases/tag/v11.1.0"},{"name":"v11.0.1","tag_name":"v11.0.1","html_url":"https://github.com/d0rich/tpu_mobile_labs/releases/tag/v11.0.1"},{"name":"v10.0.0","tag_name":"v10.0.0","html_url":"https://github.com/d0rich/tpu_mobile_labs/releases/tag/v10.0.0"},{"name":"v9.0.0","tag_name":"v9.0.0","html_url":"https://github.com/d0rich/tpu_mobile_labs/releases/tag/v9.0.0"},{"name":"v8.0.0","tag_name":"v8.0.0","html_url":"https://github.com/d0rich/tpu_mobile_labs/releases/tag/v8.0.0"},{"name":"v7.0.2","tag_name":"v7.0.2","html_url":"https://github.com/d0rich/tpu_mobile_labs/releases/tag/v7.0.2"},{"name":"v6.0.1","tag_name":"v6.0.1","html_url":"https://github.com/d0rich/tpu_mobile_labs/releases/tag/v6.0.1"},{"name":"v5.0.0","tag_name":"v5.0.0","html_url":"https://github.com/d0rich/tpu_mobile_labs/releases/tag/v5.0.0"},{"name":"v4.0.0","tag_name":"v4.0.0","html_url":"https://github.com/d0rich/tpu_mobile_labs/releases/tag/v4.0.0"},{"name":"v3.0.0","tag_name":"v3.0.0","html_url":"https://github.com/d0rich/tpu_mobile_labs/releases/tag/v3.0.0"},{"name":"v2.0.2","tag_name":"v2.0.2","html_url":"https://github.com/d0rich/tpu_mobile_labs/releases/tag/v2.0.2"},{"name":"v2021.09.05.15.09.57","tag_name":"v2021.09.05.15.09.57","html_url":"https://github.com/d0rich/tpu_mobile_labs/releases/tag/v2021.09.05.15.09.57"}]}}]}},"context":{}}