{"hash":"7b73c1e515200e41506ff10d58b80ab190ece3c7","data":{"repos":{"totalCount":15,"pageInfo":{"totalPages":3,"currentPage":2},"edges":[{"node":{"id":"396355774","name":"dorich-site-v2-services","full_name":"d0rich/dorich-site-v2-services","owner":{"login":"d0rich","type":"User","html_url":"https://github.com/d0rich","avatar_url":"https://avatars.githubusercontent.com/u/51794590?v=4"},"description":"","html_url":"https://github.com/d0rich/dorich-site-v2-services","stargazers_count":0,"language":{"name":"TypeScript","color":"#3178c6","icon":"https://cdn.jsdelivr.net/gh/devicons/devicon/icons/typescript/typescript-original.svg"},"releases":[]}},{"node":{"id":"392194923","name":"dorich-site-v2","full_name":"d0rich/dorich-site-v2","owner":{"login":"d0rich","type":"User","html_url":"https://github.com/d0rich","avatar_url":"https://avatars.githubusercontent.com/u/51794590?v=4"},"description":"","html_url":"https://github.com/d0rich/dorich-site-v2","stargazers_count":0,"language":{"name":"Vue","color":"#41b883","icon":"https://cdn.jsdelivr.net/gh/devicons/devicon/icons/vuejs/vuejs-original.svg"},"releases":[]}},{"node":{"id":"341220968","name":"rating-visualize","full_name":"d0rich/rating-visualize","owner":{"login":"d0rich","type":"User","html_url":"https://github.com/d0rich","avatar_url":"https://avatars.githubusercontent.com/u/51794590?v=4"},"description":"The application visualizes the results of the qualifying round of the Olympiads 20/21 from the website of Tomsk State University.","html_url":"https://github.com/d0rich/rating-visualize","stargazers_count":0,"language":{"name":"JavaScript","color":"#f1e05a","icon":"https://cdn.jsdelivr.net/gh/devicons/devicon/icons/javascript/javascript-original.svg"},"releases":[]}},{"node":{"id":"330556558","name":"vue-weather","full_name":"d0rich/vue-weather","owner":{"login":"d0rich","type":"User","html_url":"https://github.com/d0rich","avatar_url":"https://avatars.githubusercontent.com/u/51794590?v=4"},"description":"☀️ SPA for displaying weather. APIs for weather and gealocation are used.","html_url":"https://github.com/d0rich/vue-weather","stargazers_count":0,"language":{"name":"Vue","color":"#41b883","icon":"https://cdn.jsdelivr.net/gh/devicons/devicon/icons/vuejs/vuejs-original.svg"},"releases":[]}},{"node":{"id":"311005082","name":"todo-list","full_name":"d0rich/todo-list","owner":{"login":"d0rich","type":"User","html_url":"https://github.com/d0rich","avatar_url":"https://avatars.githubusercontent.com/u/51794590?v=4"},"description":"Simple todo app that uses external backend","html_url":"https://github.com/d0rich/todo-list","stargazers_count":0,"language":{"name":"Vue","color":"#41b883","icon":"https://cdn.jsdelivr.net/gh/devicons/devicon/icons/vuejs/vuejs-original.svg"},"releases":[]}},{"node":{"id":"303038648","name":"app-son","full_name":"d0rich/app-son","owner":{"login":"d0rich","type":"User","html_url":"https://github.com/d0rich","avatar_url":"https://avatars.githubusercontent.com/u/51794590?v=4"},"description":"Simple landing page","html_url":"https://github.com/d0rich/app-son","stargazers_count":0,"language":{"name":"CSS","color":"#563d7c","icon":"https://cdn.jsdelivr.net/gh/devicons/devicon/icons/css3/css3-original.svg"},"releases":[]}}]}},"context":{}}